<svg version="1.1" id="Ebene_1" xmlns="http://www.w3.org/2000/svg" xmlns:xlink="http://www.w3.org/1999/xlink" x="0px" y="0px"
	 width="26px" height="8px" viewBox="0 0 26 8" enable-background="new 0 0 26 8" xml:space="preserve">
<polygon fill-rule="evenodd" clip-rule="evenodd" fill="#1fbfba" points="13,0.5 13.55,1.05 7.675,7.3 6.175,7.3 0.575,1.45 
	0.375,1.2 0.725,0.5 2.225,0.5 6.9,5.425 11.525,0.5 "/>
</svg>
